 ****** HSPICE -- J-2014.09-SP2-2 64-BIT (Apr 17 2015) win64 ******             
  Copyright (C) 2014 Synopsys, Inc. All Rights Reserved.                        
  Unpublished-rights reserved under US copyright laws.
  This program is protected by law and is subject to the
  terms and conditions of the license agreement from Synopsys.
  Use of this program is your acceptance to be bound by the
  license agreement. HSPICE is the trademark of Synopsys, Inc.
  Input File: hw1-d.sp                                                          
  Command line options: -i hw1-d.sp -o hw1-d.lis
  lic:  
  lic: FLEXlm: v10.9.8 
  lic: USER:   User                 HOSTNAME: Surface-yp 
  lic: HOSTID: "b831b5963130 00606eb998b8 b831b596312f ba31b596302e ba31b596352e
 " PID:      10256 
  lic: Using FLEXlm license file: 
  lic: 27000@Surface-yp 
  lic: Checkout 1 hspice 
  lic: License/Maintenance for hspice will expire on 30-dec-2020/2019.2019 
  lic: 1(in_use)/99(total) FLOATING license(s) on SERVER 27000@Surface-yp 
  lic:   
 Init: read install configuration file: D:\synopsys\Hspice_J-2014.09-SP2-2\meta.cfg
  **error** (hw1-d.sp:9)  measure func=par              not defined
  **error** (hw1-d.sp:9) difficulty in reading input

          ***** job aborted
1****** HSPICE -- J-2014.09-SP2-2 64-BIT (Apr 17 2015) win64 ******             
 ******  
 **hw1-d**

 ****** job statistics summary tnom=  25.000 temp=  25.000 ******

  ******  HSPICE Threads Information  ******

  Command Line Threads Count :     1
  Available CPU Count        :     8
  Actual Threads Count       :     1


  ******  Circuit Statistics  ******
  # nodes       =       0 # elements   =       2
  # resistors   =       0 # capacitors =       0 # inductors   =       0
  # mutual_inds =       0 # vccs       =       0 # vcvs        =       0
  # cccs        =       0 # ccvs       =       0 # volt_srcs   =       0
  # curr_srcs   =       0 # diodes     =       0 # bjts        =       0
  # jfets       =       0 # mosfets    =       2 # U elements  =       0
  # T elements  =       0 # W elements =       0 # B elements  =       0
  # S elements  =       0 # P elements =       0 # va device   =       0
  # vector_srcs =       0 # N elements =       0


  ******  Runtime Statistics (seconds)  ******

  analysis           time    # points   tot. iter  conv.iter
  op point           0.00           1           0
  readin             0.01
  errchk             0.00
  setup              0.00
  output             0.00


           peak memory used         44.06 megabytes
           total cpu time            0.02 seconds
           total elapsed time        0.08 seconds
           job started at     22:45:02 04/06/2020
           job ended   at     22:45:02 04/06/2020


  lic: Release hspice token(s) 
 lic: total license checkout elapse time:        0.06(s)
